{
	"info": {
		"_postman_id": "79bf5923-29b6-4638-9718-0865476dca84",
		"name": "IP stack",
		"schema": "https://schema.getpostman.com/json/collection/v2.1.0/collection.json",
		"_exporter_id": "3531924"
	},
	"item": [
		{
			"name": "Get information by IP address",
			"event": [
				{
					"listen": "test",
					"script": {
						"exec": [
							"pm.test(\"Status code name has 200\", function () { pm.response.to.have.status(200); });\r",
							"pm.test(\"Status code name has OK\", function () {pm.response.to.have.status(\"OK\");});\r",
							"\r",
							"var responseJson = pm.response.json();\r",
							"\r",
							"pm.test(\"Check value 'latitude'  = 50.4\", function () {pm.expect(responseJson.latitude.toString().substring(0,4)).eql('50.4');});\r",
							"pm.test(\"Check value 'longitude' = 30.5\", function () {pm.expect(responseJson.longitude.toString().substring(0,4)).eql('30.5');});"
						],
						"type": "text/javascript"
					}
				}
			],
			"request": {
				"method": "GET",
				"header": [],
				"url": {
					"raw": "{{apiUrl}}178.150.45.33?access_key={{apiKey}}",
					"host": [
						"{{apiUrl}}178",
						"150",
						"45",
						"33"
					],
					"query": [
						{
							"key": "access_key",
							"value": "{{apiKey}}"
						}
					]
				}
			},
			"response": []
		}
	],
	"event": [
		{
			"listen": "prerequest",
			"script": {
				"type": "text/javascript",
				"exec": [
					""
				]
			}
		},
		{
			"listen": "test",
			"script": {
				"type": "text/javascript",
				"exec": [
					""
				]
			}
		}
	],
	"variable": [
		{
			"key": "apiUrl",
			"value": "http://api.ipstack.com/",
			"type": "string"
		},
		{
			"key": "apiKey",
			"value": "09b2513dc06ab780b3685d3a3904ce45",
			"type": "string"
		}
	]
}